<?xml version="1.0" encoding="utf-8"?>
<!-- Generator: Adobe Illustrator 21.0.0, SVG Export Plug-In . SVG Version: 6.00 Build 0)  -->
<svg version="1.1" id="Layer_1" xmlns="http://www.w3.org/2000/svg" xmlns:xlink="http://www.w3.org/1999/xlink" x="0px" y="0px"
	 viewBox="0 0 3035 300" style="enable-background:new 0 0 3035 300;" xml:space="preserve">
<style type="text/css">
	.st0{fill:#1A1A1A;}
	.st1{fill:#FFFFFF;}
	.st2{fill:#D13631;}
	.st3{fill:#DAC131;}
	.st4{fill:#6772F0;}
</style>
<g>
	<g>
		<path class="st0" d="M490.1,299.9h-73.1V0h73.1v131.6L589.2,0h95.7L561.5,150l123.5,150h-94L490.1,167.5V299.9z"/>
		<path class="st0" d="M802,299.9L695.6,0h77.8l74.3,228.6L922,0h77.8L893.4,299.9H802z"/>
		<path class="st0" d="M1224.7,299.9l-16.6-50.3h-107.4l-16.6,50.3h-77.5L1110.6,0h88.6l103.5,299.9H1224.7z M1119.1,194.3h70.7
			l-35.4-106.5L1119.1,194.3z"/>
		<path class="st0" d="M1444.9,0c47.8,0,87.2,13.9,117.9,41.7c30.8,27.8,46.1,63.8,46.1,108.1c0,44.3-15.4,80.4-46.1,108.3
			c-30.8,27.9-70.1,41.9-117.9,41.9h-105.5V0H1444.9z M1412.5,244.4h32.5c27.9,0,49.8-8.5,65.8-25.6c15.9-17.1,23.9-40,23.9-68.8
			c0-28.8-8-51.7-23.9-68.8c-16-17.1-37.9-25.6-65.8-25.6h-32.5V244.4z"/>
		<path class="st0" d="M1728.2,183.3v116.6h-73.1V0h118.3c34.7,0,61.8,9,81.2,26.9c19.4,17.9,29.1,39.6,29.1,64.9
			c0,17.4-5.3,34.3-15.8,50.8c-10.5,16.5-27.8,28.2-51.7,35l73.5,122.2h-85.4l-67.5-116.6H1728.2z M1728.2,55.5v72.2h45.3
			c11.1,0,19.9-3.3,26.3-9.8c6.4-6.5,9.6-15.2,9.6-25.8s-3.3-19.4-9.8-26.3c-6.6-6.8-15.2-10.3-26.1-10.3H1728.2z"/>
		<path class="st0" d="M2130.4,299.9l-16.6-50.3h-107.4l-16.6,50.3h-77.5L2016.3,0h88.6l103.5,299.9H2130.4z M2024.8,194.3h70.7
			l-35.4-106.5L2024.8,194.3z"/>
		<path class="st0" d="M2224.6,55.5V0h236.7v55.5h-82v244.4h-73.1V55.5H2224.6z"/>
		<path class="st0" d="M2567.7,260c0,11.3-3.8,20.7-11.5,28.4c-7.7,7.7-17.2,11.5-28.4,11.5c-11.3,0-20.7-3.8-28.4-11.5
			c-7.7-7.7-11.5-17.2-11.5-28.4c0-11.2,3.8-20.7,11.5-28.4c7.7-7.7,17.2-11.5,28.4-11.5c11.2,0,20.7,3.8,28.4,11.5
			C2563.8,239.2,2567.7,248.7,2567.7,260z"/>
		<path class="st0" d="M2614.6,299.9V0h73.1v299.9H2614.6z"/>
		<path class="st0" d="M2777.9,257.4c-29.1-28.4-43.6-64.2-43.6-107.6s14.5-79.2,43.6-107.4C2806.9,14.1,2842.5,0,2884.6,0
			c42.1,0,77.6,14.1,106.4,42.3c28.8,28.2,43.2,64,43.2,107.4s-14.5,79.3-43.4,107.6c-28.9,28.4-64.4,42.5-106.4,42.5
			C2842.4,299.9,2806.9,285.7,2777.9,257.4z M2940.5,211.1c14-15.3,21.1-35.7,21.1-61.3c0-25.6-7-46-21.1-61.3
			c-14-15.3-32.8-22.9-56.3-22.9c-23.5,0-42.3,7.7-56.3,22.9c-14,15.3-21.1,35.7-21.1,61.3c0,25.6,7,46,21.1,61.3
			c14,15.3,32.8,22.9,56.3,22.9C2907.7,234,2926.5,226.4,2940.5,211.1z"/>
	</g>
	<g>
		<g>
			<path class="st1" d="M0,0.1V300h299.9V0.1H0z"/>
			<rect x="94.9" y="0.1" class="st2" width="205" height="205"/>
			<rect y="184.6" class="st3" width="299.9" height="115.4"/>
			<rect x="184.5" y="184.6" class="st4" width="115.4" height="115.4"/>
			<path d="M0,0.1V300h299.9V0.1H0z M20.5,20.6h74.4v164H20.5V20.6z M184.5,279.5h-164v-74.4h164V279.5z M279.4,279.5H205v-74.4
				h74.4V279.5z M279.4,184.6h-164v-164h164V184.6z"/>
		</g>
	</g>
</g>
</svg>
